{
  "fakePage1": {
    "content": [
      {
        "id": "5b323330755b9d2e6c562501",
        "archivio": "xdocwaydoc",
        "idRecord": "00237795",
        "tipoRecord": "doc",
        "data": "2018-06-26T12:36:00.260+0000",
        "tipoAzione": [
          "VISUALIZZAZIONE",
          "VISTO"
        ],
        "user": {
          "username": "sstagni",
          "codUser": "PI000008",
          "ipAddress": "127.0.0.1"
        }
      },
      {
        "id": "5b32332e755b9d2e6c562502",
        "archivio": "xdocwaydoc",
        "idRecord": "00237794",
        "tipoRecord": "doc",
        "data": "2018-06-26T12:35:58.969+0000",
        "tipoAzione": [
          "VISUALIZZAZIONE"
        ],
        "user": {
          "username": "sstagni",
          "codUser": "PI000008",
          "ipAddress": "127.0.0.1"
        }
      },
      {
        "id": "5b323330755b9d2e6c562503",
        "archivio": "xdocwaydoc",
        "idRecord": "00237795",
        "tipoRecord": "doc",
        "data": "2018-06-26T12:36:00.260+0000",
        "tipoAzione": [
          "VISUALIZZAZIONE",
          "VISTO"
        ],
        "user": {
          "username": "sstagni",
          "codUser": "PI000008",
          "ipAddress": "127.0.0.1"
        }
      },
      {
        "id": "5b32332e755b9d2e6c562504",
        "archivio": "xdocwaydoc",
        "idRecord": "00237794",
        "tipoRecord": "doc",
        "data": "2018-06-26T12:35:58.969+0000",
        "tipoAzione": [
          "VISUALIZZAZIONE"
        ],
        "user": {
          "username": "sstagni",
          "codUser": "PI000008",
          "ipAddress": "127.0.0.1"
        }
      },
      {
        "id": "5b323330755b9d2e6c562505",
        "archivio": "xdocwaydoc",
        "idRecord": "00237795",
        "tipoRecord": "doc",
        "data": "2018-06-26T12:36:00.260+0000",
        "tipoAzione": [
          "VISUALIZZAZIONE",
          "VISTO"
        ],
        "user": {
          "username": "sstagni",
          "codUser": "PI000008",
          "ipAddress": "127.0.0.1"
        }
      },
      {
        "id": "5b32332e755b9d2e6c562506",
        "archivio": "xdocwaydoc",
        "idRecord": "00237794",
        "tipoRecord": "doc",
        "data": "2018-06-26T12:35:58.969+0000",
        "tipoAzione": [
          "VISUALIZZAZIONE"
        ],
        "user": {
          "username": "sstagni",
          "codUser": "PI000008",
          "ipAddress": "127.0.0.1"
        }
      },
      {
        "id": "5b323330755b9d2e6c562507",
        "archivio": "xdocwaydoc",
        "idRecord": "00237795",
        "tipoRecord": "doc",
        "data": "2018-06-26T12:36:00.260+0000",
        "tipoAzione": [
          "VISUALIZZAZIONE",
          "VISTO"
        ],
        "user": {
          "username": "sstagni",
          "codUser": "PI000008",
          "ipAddress": "127.0.0.1"
        }
      },
      {
        "id": "5b32332e755b9d2e6c562508",
        "archivio": "xdocwaydoc",
        "idRecord": "00237794",
        "tipoRecord": "doc",
        "data": "2018-06-26T12:35:58.969+0000",
        "tipoAzione": [
          "VISUALIZZAZIONE"
        ],
        "user": {
          "username": "sstagni",
          "codUser": "PI000008",
          "ipAddress": "127.0.0.1"
        }
      },
      {
        "id": "5b323330755b9d2e6c562509",
        "archivio": "xdocwaydoc",
        "idRecord": "00237795",
        "tipoRecord": "doc",
        "data": "2018-06-26T12:36:00.260+0000",
        "tipoAzione": [
          "VISUALIZZAZIONE",
          "VISTO"
        ],
        "user": {
          "username": "sstagni",
          "codUser": "PI000008",
          "ipAddress": "127.0.0.1"
        }
      },
      {
        "id": "5b32332e755b9d2e6c562510",
        "archivio": "xdocwaydoc",
        "idRecord": "00237794",
        "tipoRecord": "doc",
        "data": "2018-06-26T12:35:58.969+0000",
        "tipoAzione": [
          "VISUALIZZAZIONE"
        ],
        "user": {
          "username": "sstagni",
          "codUser": "PI000008",
          "ipAddress": "127.0.0.1"
        }
      },
      {
        "id": "5b323330755b9d2e6c562511",
        "archivio": "xdocwaydoc",
        "idRecord": "00237795",
        "tipoRecord": "doc",
        "data": "2018-06-26T12:36:00.260+0000",
        "tipoAzione": [
          "VISUALIZZAZIONE",
          "VISTO"
        ],
        "user": {
          "username": "sstagni",
          "codUser": "PI000008",
          "ipAddress": "127.0.0.1"
        }
      },
      {
        "id": "5b32332e755b9d2e6c562512",
        "archivio": "xdocwaydoc",
        "idRecord": "00237794",
        "tipoRecord": "doc",
        "data": "2018-06-26T12:35:58.969+0000",
        "tipoAzione": [
          "VISUALIZZAZIONE"
        ],
        "user": {
          "username": "sstagni",
          "codUser": "PI000008",
          "ipAddress": "127.0.0.1"
        }
      },
      {
        "id": "5b323330755b9d2e6c562513",
        "archivio": "xdocwaydoc",
        "idRecord": "00237795",
        "tipoRecord": "doc",
        "data": "2018-06-26T12:36:00.260+0000",
        "tipoAzione": [
          "VISUALIZZAZIONE",
          "VISTO"
        ],
        "user": {
          "username": "sstagni",
          "codUser": "PI000008",
          "ipAddress": "127.0.0.1"
        }
      },
      {
        "id": "5b32332e755b9d2e6c562514",
        "archivio": "xdocwaydoc",
        "idRecord": "00237794",
        "tipoRecord": "doc",
        "data": "2018-06-26T12:35:58.969+0000",
        "tipoAzione": [
          "VISUALIZZAZIONE"
        ],
        "user": {
          "username": "sstagni",
          "codUser": "PI000008",
          "ipAddress": "127.0.0.1"
        }
      },
      {
        "id": "5b323330755b9d2e6c562515",
        "archivio": "xdocwaydoc",
        "idRecord": "00237795",
        "tipoRecord": "doc",
        "data": "2018-06-26T12:36:00.260+0000",
        "tipoAzione": [
          "VISUALIZZAZIONE",
          "VISTO"
        ],
        "user": {
          "username": "sstagni",
          "codUser": "PI000008",
          "ipAddress": "127.0.0.1"
        }
      },
      {
        "id": "5b32332e755b9d2e6c562516",
        "archivio": "xdocwaydoc",
        "idRecord": "00237794",
        "tipoRecord": "doc",
        "data": "2018-06-26T12:35:58.969+0000",
        "tipoAzione": [
          "VISUALIZZAZIONE"
        ],
        "user": {
          "username": "sstagni",
          "codUser": "PI000008",
          "ipAddress": "127.0.0.1"
        }
      },
      {
        "id": "5b323330755b9d2e6c562517",
        "archivio": "xdocwaydoc",
        "idRecord": "00237795",
        "tipoRecord": "doc",
        "data": "2018-06-26T12:36:00.260+0000",
        "tipoAzione": [
          "VISUALIZZAZIONE",
          "VISTO"
        ],
        "user": {
          "username": "sstagni",
          "codUser": "PI000008",
          "ipAddress": "127.0.0.1"
        }
      },
      {
        "id": "5b32332e755b9d2e6c562518",
        "archivio": "xdocwaydoc",
        "idRecord": "00237794",
        "tipoRecord": "doc",
        "data": "2018-06-26T12:35:58.969+0000",
        "tipoAzione": [
          "VISUALIZZAZIONE"
        ],
        "user": {
          "username": "sstagni",
          "codUser": "PI000008",
          "ipAddress": "127.0.0.1"
        }
      },
      {
        "id": "5b323330755b9d2e6c562519",
        "archivio": "xdocwaydoc",
        "idRecord": "00237795",
        "tipoRecord": "doc",
        "data": "2018-06-26T12:36:00.260+0000",
        "tipoAzione": [
          "VISUALIZZAZIONE",
          "VISTO"
        ],
        "user": {
          "username": "sstagni",
          "codUser": "PI000008",
          "ipAddress": "127.0.0.1"
        }
      },
      {
        "id": "5b32332e755b9d2e6c562520",
        "archivio": "xdocwaydoc",
        "idRecord": "00237794",
        "tipoRecord": "doc",
        "data": "2018-06-26T12:35:58.969+0000",
        "tipoAzione": [
          "ELIMINAZIONE_RECORD"
        ],
        "user": {
          "username": "sstagni",
          "codUser": "PI000008",
          "ipAddress": "127.0.0.1"
        }
      }
    ],
    "pageable": {
      "sort": {
        "sorted": true,
        "unsorted": false
      },
      "pageSize": 20,
      "pageNumber": 0,
      "offset": 0,
      "paged": true,
      "unpaged": false
    },
    "last": false,
    "totalPages": 3,
    "totalElements": 60,
    "first": true,
    "sort": {
      "sorted": true,
      "unsorted": false
    },
    "numberOfElements": 20,
    "size": 20,
    "number": 0
  }
}
