{
  "fakePage2": {
    "content": [
      {
        "id": "5b323330755b9d2e6c562521",
        "archivio": "xdocwaydoc",
        "idRecord": "00237795",
        "tipoRecord": "doc",
        "data": "2018-06-26T12:36:00.260+0000",
        "tipoAzione": [
          "VISUALIZZAZIONE",
          "VISTO"
        ],
        "user": {
          "username": "sstagni",
          "codUser": "PI000008",
          "ipAddress": "127.0.0.1"
        }
      },
      {
        "id": "5b32332e755b9d2e6c562522",
        "archivio": "xdocwaydoc",
        "idRecord": "00237794",
        "tipoRecord": "doc",
        "data": "2018-06-26T12:35:58.969+0000",
        "tipoAzione": [
          "VISUALIZZAZIONE"
        ],
        "user": {
          "username": "sstagni",
          "codUser": "PI000008",
          "ipAddress": "127.0.0.1"
        }
      },
      {
        "id": "5b323330755b9d2e6c562523",
        "archivio": "xdocwaydoc",
        "idRecord": "00237795",
        "tipoRecord": "doc",
        "data": "2018-06-26T12:36:00.260+0000",
        "tipoAzione": [
          "VISUALIZZAZIONE",
          "VISTO"
        ],
        "user": {
          "username": "sstagni",
          "codUser": "PI000008",
          "ipAddress": "127.0.0.1"
        }
      },
      {
        "id": "5b32332e755b9d2e6c562524",
        "archivio": "xdocwaydoc",
        "idRecord": "00237794",
        "tipoRecord": "doc",
        "data": "2018-06-26T12:35:58.969+0000",
        "tipoAzione": [
          "VISUALIZZAZIONE"
        ],
        "user": {
          "username": "sstagni",
          "codUser": "PI000008",
          "ipAddress": "127.0.0.1"
        }
      },
      {
        "id": "5b323330755b9d2e6c562525",
        "archivio": "xdocwaydoc",
        "idRecord": "00237795",
        "tipoRecord": "doc",
        "data": "2018-06-26T12:36:00.260+0000",
        "tipoAzione": [
          "VISUALIZZAZIONE",
          "VISTO"
        ],
        "user": {
          "username": "sstagni",
          "codUser": "PI000008",
          "ipAddress": "127.0.0.1"
        }
      },
      {
        "id": "5b32332e755b9d2e6c562526",
        "archivio": "xdocwaydoc",
        "idRecord": "00237794",
        "tipoRecord": "doc",
        "data": "2018-06-26T12:35:58.969+0000",
        "tipoAzione": [
          "VISUALIZZAZIONE"
        ],
        "user": {
          "username": "sstagni",
          "codUser": "PI000008",
          "ipAddress": "127.0.0.1"
        }
      },
      {
        "id": "5b323330755b9d2e6c562527",
        "archivio": "xdocwaydoc",
        "idRecord": "00237795",
        "tipoRecord": "doc",
        "data": "2018-06-26T12:36:00.260+0000",
        "tipoAzione": [
          "VISUALIZZAZIONE",
          "VISTO"
        ],
        "user": {
          "username": "sstagni",
          "codUser": "PI000008",
          "ipAddress": "127.0.0.1"
        }
      },
      {
        "id": "5b32332e755b9d2e6c562528",
        "archivio": "xdocwaydoc",
        "idRecord": "00237794",
        "tipoRecord": "doc",
        "data": "2018-06-26T12:35:58.969+0000",
        "tipoAzione": [
          "VISUALIZZAZIONE"
        ],
        "user": {
          "username": "sstagni",
          "codUser": "PI000008",
          "ipAddress": "127.0.0.1"
        }
      },
      {
        "id": "5b323330755b9d2e6c562529",
        "archivio": "xdocwaydoc",
        "idRecord": "00237795",
        "tipoRecord": "doc",
        "data": "2018-06-26T12:36:00.260+0000",
        "tipoAzione": [
          "VISUALIZZAZIONE",
          "VISTO"
        ],
        "user": {
          "username": "sstagni",
          "codUser": "PI000008",
          "ipAddress": "127.0.0.1"
        }
      },
      {
        "id": "5b32332e755b9d2e6c562530",
        "archivio": "xdocwaydoc",
        "idRecord": "00237794",
        "tipoRecord": "doc",
        "data": "2018-06-26T12:35:58.969+0000",
        "tipoAzione": [
          "VISUALIZZAZIONE"
        ],
        "user": {
          "username": "sstagni",
          "codUser": "PI000008",
          "ipAddress": "127.0.0.1"
        }
      },
      {
        "id": "5b323330755b9d2e6c562531",
        "archivio": "xdocwaydoc",
        "idRecord": "00237795",
        "tipoRecord": "doc",
        "data": "2018-06-26T12:36:00.260+0000",
        "tipoAzione": [
          "VISUALIZZAZIONE",
          "VISTO"
        ],
        "user": {
          "username": "sstagni",
          "codUser": "PI000008",
          "ipAddress": "127.0.0.1"
        }
      },
      {
        "id": "5b32332e755b9d2e6c562532",
        "archivio": "xdocwaydoc",
        "idRecord": "00237794",
        "tipoRecord": "doc",
        "data": "2018-06-26T12:35:58.969+0000",
        "tipoAzione": [
          "VISUALIZZAZIONE"
        ],
        "user": {
          "username": "sstagni",
          "codUser": "PI000008",
          "ipAddress": "127.0.0.1"
        }
      },
      {
        "id": "5b323330755b9d2e6c562533",
        "archivio": "xdocwaydoc",
        "idRecord": "00237795",
        "tipoRecord": "doc",
        "data": "2018-06-26T12:36:00.260+0000",
        "tipoAzione": [
          "VISUALIZZAZIONE",
          "VISTO"
        ],
        "user": {
          "username": "sstagni",
          "codUser": "PI000008",
          "ipAddress": "127.0.0.1"
        }
      },
      {
        "id": "5b32332e755b9d2e6c562534",
        "archivio": "xdocwaydoc",
        "idRecord": "00237794",
        "tipoRecord": "doc",
        "data": "2018-06-26T12:35:58.969+0000",
        "tipoAzione": [
          "VISUALIZZAZIONE"
        ],
        "user": {
          "username": "sstagni",
          "codUser": "PI000008",
          "ipAddress": "127.0.0.1"
        }
      },
      {
        "id": "5b323330755b9d2e6c562535",
        "archivio": "xdocwaydoc",
        "idRecord": "00237795",
        "tipoRecord": "doc",
        "data": "2018-06-26T12:36:00.260+0000",
        "tipoAzione": [
          "VISUALIZZAZIONE",
          "VISTO"
        ],
        "user": {
          "username": "sstagni",
          "codUser": "PI000008",
          "ipAddress": "127.0.0.1"
        }
      },
      {
        "id": "5b32332e755b9d2e6c562536",
        "archivio": "xdocwaydoc",
        "idRecord": "00237794",
        "tipoRecord": "doc",
        "data": "2018-06-26T12:35:58.969+0000",
        "tipoAzione": [
          "VISUALIZZAZIONE"
        ],
        "user": {
          "username": "sstagni",
          "codUser": "PI000008",
          "ipAddress": "127.0.0.1"
        }
      },
      {
        "id": "5b323330755b9d2e6c562537",
        "archivio": "xdocwaydoc",
        "idRecord": "00237795",
        "tipoRecord": "doc",
        "data": "2018-06-26T12:36:00.260+0000",
        "tipoAzione": [
          "VISUALIZZAZIONE",
          "VISTO"
        ],
        "user": {
          "username": "sstagni",
          "codUser": "PI000008",
          "ipAddress": "127.0.0.1"
        }
      },
      {
        "id": "5b32332e755b9d2e6c562538",
        "archivio": "xdocwaydoc",
        "idRecord": "00237794",
        "tipoRecord": "doc",
        "data": "2018-06-26T12:35:58.969+0000",
        "tipoAzione": [
          "VISUALIZZAZIONE"
        ],
        "user": {
          "username": "sstagni",
          "codUser": "PI000008",
          "ipAddress": "127.0.0.1"
        }
      },
      {
        "id": "5b323330755b9d2e6c562539",
        "archivio": "xdocwaydoc",
        "idRecord": "00237795",
        "tipoRecord": "doc",
        "data": "2018-06-26T12:36:00.260+0000",
        "tipoAzione": [
          "VISUALIZZAZIONE",
          "VISTO"
        ],
        "user": {
          "username": "sstagni",
          "codUser": "PI000008",
          "ipAddress": "127.0.0.1"
        }
      },
      {
        "id": "5b32332e755b9d2e6c562540",
        "archivio": "xdocwaydoc",
        "idRecord": "00237794",
        "tipoRecord": "doc",
        "data": "2018-06-26T12:35:58.969+0000",
        "tipoAzione": [
          "DOWNLOAD_FILE"
        ],
        "user": {
          "username": "sstagni",
          "codUser": "PI000008",
          "ipAddress": "127.0.0.1"
        }
      }
    ],
    "pageable": {
      "sort": {
        "sorted": true,
        "unsorted": false
      },
      "pageSize": 20,
      "pageNumber": 1,
      "offset": 0,
      "paged": true,
      "unpaged": false
    },
    "last": false,
    "totalPages": 3,
    "totalElements": 60,
    "first": false,
    "sort": {
      "sorted": true,
      "unsorted": false
    },
    "numberOfElements": 20,
    "size": 20,
    "number": 1
  }
}
