{
  "fakePage3": {
    "content": [
      {
        "id": "5b323330755b9d2e6c562541",
        "archivio": "xdocwaydoc",
        "idRecord": "00237795",
        "tipoRecord": "doc",
        "data": "2018-06-26T12:36:00.260+0000",
        "tipoAzione": [
          "VISUALIZZAZIONE",
          "VISTO"
        ],
        "user": {
          "username": "sstagni",
          "codUser": "PI000008",
          "ipAddress": "127.0.0.1"
        }
      },
      {
        "id": "5b32332e755b9d2e6c562542",
        "archivio": "xdocwaydoc",
        "idRecord": "00237794",
        "tipoRecord": "doc",
        "data": "2018-06-26T12:35:58.969+0000",
        "tipoAzione": [
          "VISUALIZZAZIONE"
        ],
        "user": {
          "username": "sstagni",
          "codUser": "PI000008",
          "ipAddress": "127.0.0.1"
        }
      },
      {
        "id": "5b323330755b9d2e6c562543",
        "archivio": "xdocwaydoc",
        "idRecord": "00237795",
        "tipoRecord": "doc",
        "data": "2018-06-26T12:36:00.260+0000",
        "tipoAzione": [
          "VISUALIZZAZIONE",
          "VISTO"
        ],
        "user": {
          "username": "sstagni",
          "codUser": "PI000008",
          "ipAddress": "127.0.0.1"
        }
      },
      {
        "id": "5b32332e755b9d2e6c562544",
        "archivio": "xdocwaydoc",
        "idRecord": "00237794",
        "tipoRecord": "doc",
        "data": "2018-06-26T12:35:58.969+0000",
        "tipoAzione": [
          "VISUALIZZAZIONE"
        ],
        "user": {
          "username": "sstagni",
          "codUser": "PI000008",
          "ipAddress": "127.0.0.1"
        }
      },
      {
        "id": "5b323330755b9d2e6c562545",
        "archivio": "xdocwaydoc",
        "idRecord": "00237795",
        "tipoRecord": "doc",
        "data": "2018-06-26T12:36:00.260+0000",
        "tipoAzione": [
          "VISUALIZZAZIONE",
          "VISTO"
        ],
        "user": {
          "username": "sstagni",
          "codUser": "PI000008",
          "ipAddress": "127.0.0.1"
        }
      },
      {
        "id": "5b32332e755b9d2e6c562546",
        "archivio": "xdocwaydoc",
        "idRecord": "00237794",
        "tipoRecord": "doc",
        "data": "2018-06-26T12:35:58.969+0000",
        "tipoAzione": [
          "VISUALIZZAZIONE"
        ],
        "user": {
          "username": "sstagni",
          "codUser": "PI000008",
          "ipAddress": "127.0.0.1"
        }
      },
      {
        "id": "5b323330755b9d2e6c562547",
        "archivio": "xdocwaydoc",
        "idRecord": "00237795",
        "tipoRecord": "doc",
        "data": "2018-06-26T12:36:00.260+0000",
        "tipoAzione": [
          "VISUALIZZAZIONE",
          "VISTO"
        ],
        "user": {
          "username": "sstagni",
          "codUser": "PI000008",
          "ipAddress": "127.0.0.1"
        }
      },
      {
        "id": "5b32332e755b9d2e6c562548",
        "archivio": "xdocwaydoc",
        "idRecord": "00237794",
        "tipoRecord": "doc",
        "data": "2018-06-26T12:35:58.969+0000",
        "tipoAzione": [
          "VISUALIZZAZIONE"
        ],
        "user": {
          "username": "sstagni",
          "codUser": "PI000008",
          "ipAddress": "127.0.0.1"
        }
      },
      {
        "id": "5b323330755b9d2e6c562549",
        "archivio": "xdocwaydoc",
        "idRecord": "00237795",
        "tipoRecord": "doc",
        "data": "2018-06-26T12:36:00.260+0000",
        "tipoAzione": [
          "VISUALIZZAZIONE",
          "VISTO"
        ],
        "user": {
          "username": "sstagni",
          "codUser": "PI000008",
          "ipAddress": "127.0.0.1"
        }
      },
      {
        "id": "5b32332e755b9d2e6c562550",
        "archivio": "xdocwaydoc",
        "idRecord": "00237794",
        "tipoRecord": "doc",
        "data": "2018-06-26T12:35:58.969+0000",
        "tipoAzione": [
          "VISUALIZZAZIONE"
        ],
        "user": {
          "username": "sstagni",
          "codUser": "PI000008",
          "ipAddress": "127.0.0.1"
        }
      },
      {
        "id": "5b323330755b9d2e6c562551",
        "archivio": "xdocwaydoc",
        "idRecord": "00237795",
        "tipoRecord": "doc",
        "data": "2018-06-26T12:36:00.260+0000",
        "tipoAzione": [
          "VISUALIZZAZIONE",
          "VISTO"
        ],
        "user": {
          "username": "sstagni",
          "codUser": "PI000008",
          "ipAddress": "127.0.0.1"
        }
      },
      {
        "id": "5b32332e755b9d2e6c562552",
        "archivio": "xdocwaydoc",
        "idRecord": "00237794",
        "tipoRecord": "doc",
        "data": "2018-06-26T12:35:58.969+0000",
        "tipoAzione": [
          "VISUALIZZAZIONE"
        ],
        "user": {
          "username": "sstagni",
          "codUser": "PI000008",
          "ipAddress": "127.0.0.1"
        }
      },
      {
        "id": "5b323330755b9d2e6c562553",
        "archivio": "xdocwaydoc",
        "idRecord": "00237795",
        "tipoRecord": "doc",
        "data": "2018-06-26T12:36:00.260+0000",
        "tipoAzione": [
          "VISUALIZZAZIONE",
          "VISTO"
        ],
        "user": {
          "username": "sstagni",
          "codUser": "PI000008",
          "ipAddress": "127.0.0.1"
        }
      },
      {
        "id": "5b32332e755b9d2e6c562554",
        "archivio": "xdocwaydoc",
        "idRecord": "00237794",
        "tipoRecord": "doc",
        "data": "2018-06-26T12:35:58.969+0000",
        "tipoAzione": [
          "VISUALIZZAZIONE"
        ],
        "user": {
          "username": "sstagni",
          "codUser": "PI000008",
          "ipAddress": "127.0.0.1"
        }
      },
      {
        "id": "5b323330755b9d2e6c562555",
        "archivio": "xdocwaydoc",
        "idRecord": "00237795",
        "tipoRecord": "doc",
        "data": "2018-06-26T12:36:00.260+0000",
        "tipoAzione": [
          "VISUALIZZAZIONE",
          "VISTO"
        ],
        "user": {
          "username": "sstagni",
          "codUser": "PI000008",
          "ipAddress": "127.0.0.1"
        }
      },
      {
        "id": "5b32332e755b9d2e6c562556",
        "archivio": "xdocwaydoc",
        "idRecord": "00237794",
        "tipoRecord": "doc",
        "data": "2018-06-26T12:35:58.969+0000",
        "tipoAzione": [
          "VISUALIZZAZIONE"
        ],
        "user": {
          "username": "sstagni",
          "codUser": "PI000008",
          "ipAddress": "127.0.0.1"
        }
      },
      {
        "id": "5b323330755b9d2e6c562557",
        "archivio": "xdocwaydoc",
        "idRecord": "00237795",
        "tipoRecord": "doc",
        "data": "2018-06-26T12:36:00.260+0000",
        "tipoAzione": [
          "VISUALIZZAZIONE",
          "VISTO"
        ],
        "user": {
          "username": "sstagni",
          "codUser": "PI000008",
          "ipAddress": "127.0.0.1"
        }
      },
      {
        "id": "5b32332e755b9d2e6c562558",
        "archivio": "xdocwaydoc",
        "idRecord": "00237794",
        "tipoRecord": "doc",
        "data": "2018-06-26T12:35:58.969+0000",
        "tipoAzione": [
          "VISUALIZZAZIONE"
        ],
        "user": {
          "username": "sstagni",
          "codUser": "PI000008",
          "ipAddress": "127.0.0.1"
        }
      },
      {
        "id": "5b323330755b9d2e6c562559",
        "archivio": "xdocwaydoc",
        "idRecord": "00237795",
        "tipoRecord": "doc",
        "data": "2018-06-26T12:36:00.260+0000",
        "tipoAzione": [
          "VISUALIZZAZIONE",
          "VISTO"
        ],
        "user": {
          "username": "sstagni",
          "codUser": "PI000008",
          "ipAddress": "127.0.0.1"
        }
      },
      {
        "id": "5b32332e755b9d2e6c562560",
        "archivio": "xdocwaydoc",
        "idRecord": "00237794",
        "tipoRecord": "doc",
        "data": "2018-06-26T12:35:58.969+0000",
        "tipoAzione": [
          "LOGOUT"
        ],
        "user": {
          "username": "sstagni",
          "codUser": "PI000008",
          "ipAddress": "127.0.0.1"
        }
      }
    ],
    "pageable": {
      "sort": {
        "sorted": true,
        "unsorted": false
      },
      "pageSize": 20,
      "pageNumber": 2,
      "offset": 0,
      "paged": true,
      "unpaged": false
    },
    "last": true,
    "totalPages": 3,
    "totalElements": 60,
    "first": false,
    "sort": {
      "sorted": true,
      "unsorted": false
    },
    "numberOfElements": 20,
    "size": 20,
    "number": 2
  }
}
